{
  "type": "service_account",
  "project_id": "ahana-pharmacy-ffe04",
  "private_key_id": "5dd43477e65744010a159354330f1f6a3f25e534",
  "private_key": "-----BEGIN PRIVATE KEY-----\nMIIEvgIBADANBgkqhkiG9w0BAQEFAASCBKgwggSkAgEAAoIBAQCuW838+Ot9qsn2\nResKLwiDHUNIguc24kb5hixAKchvrlVztQcg916HsDv0VrU2PPrvOwPiiGPxK4Vt\n2Hboh5MIRU2xIFr0EZKnjqvsWwqjKkFBldUwq1oRVhvbz0J/zKULTUDBEp83Cvi9\n6Yoyh6mDAODcAbjl8eGE7/K3N/D1RqraQJbFth0qMAnvlfHT+8Um/4OshhtPKASp\nZgjAJKEwSHIONnneVB0cNYndtu6q1NOou1+s2dEmoOnL4f8afzTGjoe3nlH+GhFR\nRFcUAz4BxA6eJN0flVZ8kErIF+7endKD5pXqJYQDieYkHnzZsHXk0/AIsz2XaUkx\nAiAgRdsvAgMBAAECggEADWfzo6LEAIqUMsJXexX4spQaa0XdX0PwrxjY6CoORkAC\nQ/5ESQ2cEBTF11ifYEc6CBDikJVqEc4F2VdOdTyPWpBxk8/oDmIXg5idsXOikr8Z\n+1/432Adcb3MMI90Dn1+pyrOcsnqwgGu9HMzdAUoTHFR2LitLcj2TRFh+SJs/X7L\nlVPahyjwct64Q4iPn4zkdehRB6B1ZzMaQmtR9ssfgciN1TlYw/e/FwaM9TLb9aAm\neCCzcPZq+tXGMajSL+nW63E4Ujxa4ppTCwJbMzN/OSgl/ZemiYkn8HDoUfY4uzXK\nrzcnOQdryTRNP++H5xHfHDKVfAmEZB24YdjkvB8/OQKBgQD4HZBfAmEeecmL0GDv\nKtO+93iWiDT8norsEGfOO5xPnuKp1+FUpHitt8qL+9UnzvqpI1xZeuGpKf7mSKo8\nCvFM65XYNIi90jDqhF/xsA4Lb1dzMXWBtraOeYi+fNnv+LGrBs159wFMtTgl54IH\nHG6Kq5zvRiyirayfr+7jzeFQQwKBgQCz5jk+KeGJsqCN9bWWMGuktBXXJY/pagWG\ndaewu3JoLiy/vUIYNEsmTBno6cQMb251FjQ38vraCoPItetPZOc6JKE2rXiW0MIZ\n+xpwywDPXq/qIfiPBEtgI4A4EWZmdwrLVJCgytJHbgQzjJZfJuPSOXwCtawgmKYH\ndldvevxgpQKBgQDooo+jBZAaCwa2WQMKPJWdEFu4iK1lzyFihV9PNwUwgkD0Dr3v\npuafuxvmdJE/agoMXGNSYq0C96VQNgGnmnr1LE6rEVbE5DeJK+Tpr7D7d8H+9/i9\nTpuMqtdUA6w0HHI5cX9nQ/mr+p5Sq+Z21GmxC4dxsdJYFY8tir/qSDdiEQKBgFjJ\ngmz8zJRiNb16jFGAuk/ClZjmr/06V1nCTa37BX8Hcwx6wtkhTgmru4npfdnJUVG2\nULVgVZAxalMv/d/kY/6dP3e16/M7OuEJvkX22wJ9sAK1G3CyZOUhAFIrvEdL72bk\n6LCDCX85fBdZBooVrpD90AeiVD6OODssnACoSVEFAoGBAN5os8Y46SbV0cdfAg/u\nYt3xVDC67RlcTxARQnQko2V2qd+RSYaCd27W9RZn28P6pNoj1S78j35BrC5LIzMi\n6AjejWHMKmdC5BGhL3OJ4d5CCH52Xg/3c4wDIiDIuqpeP+qV7bCR2VCikHdY9o4M\nk0Ls+4Yez3YAcWWvPy6+vku5\n-----END PRIVATE KEY-----\n",
  "client_email": "ahana-pharmacy-backend-auth@ahana-pharmacy-ffe04.iam.gserviceaccount.com",
  "client_id": "106419954966664545770",
  "auth_uri": "https://accounts.google.com/o/oauth2/auth",
  "token_uri": "https://accounts.google.com/o/oauth2/token",
  "auth_provider_x509_cert_url": "https://www.googleapis.com/oauth2/v1/certs",
  "client_x509_cert_url": "https://www.googleapis.com/robot/v1/metadata/x509/ahana-pharmacy-backend-auth%40ahana-pharmacy-ffe04.iam.gserviceaccount.com"
}
